{
  "pkgDetails": {
    "method": null,
    "packageId": 11,
    "databaseId": null,
    "packageCode": "TEQIP-III/AS/aeck/11",
    "packageName": "test1",
    "category": "Goods",
    "categoryId": 2,
    "estimatedCost": 20000,
    "initiationDate": 1525046400000,
    "description": "test1",
    "subCategory": "Equipment",
    "subCategoryId": 4,
    "procMethod": "National Competitive Bidding",
    "procMethodId": 2,
    "subComponent": "Institutional Development Grants to Participating institutes",
    "subComponentId": 1,
    "actualFinancialSanctionDate": null,
    "quotationInvitationDate": null,
    "quotationOpeningDate": null,
    "contractAwardDate": null,
    "contractCompletionDate": null,
    "status": null
  },
  "invitationLetter": {
    "isCompleted": 1,
    "details": {
      "invitationLetterId": 2,
      "quotationValidityRequired": 90,
      "trainingClause": "test",
      "warranty": "90",
      "workCompletionPeriod": 90,
      "liquidatedDamages": 10,
      "lastSubmissionDate": 1525046400000,
      "lastSubmissionTime": null,
      "installationClause": "test",
      "amc": "AMC",
      "plannedBidOpeningDate": 1525046400000,
      "plannedBidOpeningTime": null,
      "procuringDepartment": null,
      "maxLiquidatedDamages": 10,
      "generateInvitationLetter": false,
      "quotedPrice": 12121
    },
    "ilGeneration": {
      "number": "",
      "fileName": "",
      "description": "",
      "fileNameLink": "",
      "id": 120,
      "date": 1525385659000,
      "documentCategory": "INVITATION_LETTER",
      "uploadedDate": 1525385659000,
      "file": null
    }
  },
  "quotationOpening": {
    "isCompleted": 1,
    "packQuotationDetailId": 2,
    "print": null,
    "quotationOpeningDate": 1525046400000,
    "quotationMom": "test",
    "quotationOpeningTime": null,
    "quotationForm": [
      {
        "packageQuotationId": 4,
        "supplierId": 25,
        "supplierName": "test",
        "isQuotationReceived": 1,
        "isQuotationDulySigned": 0,
        "quotationNumber": "12",
        "quotationReceivedDate": 1525046400000,
        "quotationValidity": 11,
        "unconditionalDiscount": 1,
        "readoutPriceWithoutTaxes": 120000,
        "questions": [
          {
            "packageQuestionId": 6,
            "question": "iiiii",
            "decision": 0,
            "value": "",
            "questionNonResponsiveValue": "",
            "isStandardQuestion": 1,
            "userResponse": "",
            "reasonForNonResponsiveNess": "",
            "type": "",
            "isReadOut": 1,
            "isEvaluatedPrice": 1
          }
        ]
      }
    ],
    "qoGeneration": {
      "number": "",
      "fileName": "",
      "description": "",
      "fileNameLink": "",
      "id": 120,
      "date": 1525385659000,
      "documentCategory": "INVITATION_LETTER",
      "uploadedDate": 1525385659000,
      "file": null
    }
  },
  "quotationEvaluation": {
    "isCompleted": 1,
    "l1Bidder": 53,
    "selectedContractorForPostQualification": 53,
    "evaluationForms": [
      {
        "id":1,
        "questions": [],
        "quotationDetail": {
          "packageReadOutPrice": 120000,
          "totalPriceOfItems": 120000,
          "items": [
            {
              "quotationItemId": 1,
              "isWorkType": 0,
              "itemName": "",
              "itemQty": 1,
              "basicCost": 2000,
              "totalPrice": 2000,
              "comments": ""
            }
          ],
          "works": [
            {
              "id": 1,
              "workQuotationId": 11,
              "workCost": 14545,
              "workEstimatedCost": 12345,
              "comments": "",
              "workSpecification": "refurbishment"
            }
          ]
        }
      }
    ],
    "postQualificationForms": [
      {
        "id":1,
        "supplierId": 123,
        "supplierName": "Test Supplier",
        "questions": [
          {
            "packageQuestionId": 6,
            "question": "iiiii",
            "decision": 0,
            "value": "",
            "questionNonResponsiveValue": "",
            "isStandardQuestion": 1,
            "userResponse": "",
            "reasonForNonResponsiveNess": "",
            "type": "",
            "isReadOut": 1,
            "isEvaluatedPrice": 1
          }
        ]
      }
    ],
    "qeGeneration": {
      "number": "",
      "fileName": "",
      "description": "",
      "fileNameLink": "",
      "id": 120,
      "date": 1525385659000,
      "documentCategory": "Quotation Evaluation",
      "uploadedDate": 1525385659000,
      "file": null
    }
  },
  "award": {
    "isCompleted": 1,
    "packageAwardDetailId": 3,
    "l1Supplier": "test",
    "l1SupplierId": 25,
    "recommandationComments": "test",
    "extendValidity": [
      {
        "questionText": "",
        "id": 1,
        "comments": "",
        "validityInDays": 12
      }
    ]
  },
  "purchaseOrder": {
    "isCompleted": 1,
    "generatePo": {
      "packagePurchaseOrderId": 4,
      "supplierId": 1,
      "supplierName": "supplierName",
      "poNumber": "TEQIP-III/118/aeck/NCB/4",
      "poDate": 1525345568000,
      "gst": 12,
      "octroi": 12,
      "totalContractValue": null,
      "evaluatedCost": 1000,
      "totalBaseCost": null,
      "basicValue": 1200,
      "items": [
        {
          "departmentName": "",
          "itemId": 1,
          "poItemId": 12,
          "description": "",
          "basicCost": 12000,
          "quantity": 10,
          "totalBasicCost": 12000,
          "itemMasterId": 2
        }
      ]
    },
    "poGeneration": {
      "number": "",
      "fileName": "",
      "description": "",
      "fileNameLink": "",
      "id": 120,
      "date": 1525385659000,
      "documentCategory": "INVITATION_LETTER",
      "uploadedDate": 1525385659000,
      "file": null
    }
  },
  "grn": {
    "isCompleted": 1,
    "grnDetails": [
      {
        "packageGRNDetailId": 3,
        "supplierId": 26,
        "supplierName": "testM",
        "supplyDate": 1525478400000,
        "grnNumber": "",
        "grnItems": [
          {
            "packageGrnItemDetailId": 3,
            "itemcode": "19",
            "itemMasterid": 1,
            "itemName": "Chair",
            "itemComment": "testttt",
            "receivedQty": 1,
            "stockRegistorName": "testtt",
            "pageno": "12",
            "serialno": "12",
            "grnItemDistributions": [
              {
                "packageGRNItemDistributionId": 3,
                "departmentId": 1,
                "departmentName": "SEPG",
                "quantity": 1
              }
            ]
          }
        ],
        "grnUpload": {},
        "assetUpload": {}
      }
    ],
    "completeCheckLists": {
      "packageCompleteCheckListId": 1,
      "supplierId": 12,
      "supplierName": "test",
      "goodReceived": 1,
      "installationDone": 1,
      "trainingDone": 1,
      "procurementDate": 1,
      "workCompleted": 1,
      "envchecklistUpdated": 1
    }
  },
  "workOrder": {
    "isCompleted": 1,
    "packageWorkOrderId": 1,
    "workOrderId": 1,
    "performanceSecurityReceivedDate": 12212121,
    "performanceSecurityExpiryDate": 112212121,
    "contractStartDate": 12222222,
    "workStartDate": 12222222,
    "workCompletionDate": 1212321321,
    "basicValue": 120,
    "sumOfApplicableTaxes": 10,
    "contractValue": 100000,
    "isWorkOrderGenerated": 1,
    "woGeneration": {
      "number": "",
      "fileName": "",
      "description": "",
      "fileNameLink": "",
      "id": 120,
      "date": 1525385659000,
      "documentCategory": "INVITATION_LETTER",
      "uploadedDate": 1525385659000,
      "file": null
    }
  },
  "letterOfAcceptance": {
    "isCompleted": 1,
    "letterofAcceptanceId": 1,
    "maintenancePeriod": "",
    "performanceSecurity": "",
    "loaGeneratedDate": "",
    "newBidValidity": "",
    "isLoaGenerated": 1,
    "loaGeneration": {
      "number": "",
      "fileName": "",
      "description": "",
      "fileNameLink": "",
      "id": 120,
      "date": 1525385659000,
      "documentCategory": "INVITATION_LETTER",
      "uploadedDate": 1525385659000,
      "file": null
    }
  },
  "uploads": [
    {
      "packageDocumentId": 13,
      "documentCategory": "INVITATION_LETTER",
      "fileName": "MethodPkgobject.json",
      "fileNameLink": "/download/11/MethodPkgobject.json",
      "description": "REST JSON",
      "uploadedBy": null,
      "uploadedDate": 1525385659000,
      "file": null
    }
  ],
  "wccPayments": {
    "isCompleted": 1,
    "wccPaymentId": 1,
    "workCompletionCertificates": [
      {
        "actualDateOfCompletion": 1236788,
        "workDone": "",
        "comments": "",
        "woNumber": "",
        "balanceWork": ""
      }
    ],
    "ammendmentDetails": {
      "isAmmendmentRequired": 1,
      "isAmmendmentCompleted": 1,
      "maintainencePeriodExpiryDate": 1212112,
      "workCompletionDate": 122121,
      "performanceSecurityAmount": 1212121,
      "performanceSecurityExpiryDate": 1218218
    }
  },
  "genofBid": {
    "isCompleted": 1,
    "bidDetails": {
      "sbdDate": "01-08-2017",
      "lastDateReceiptsofBids": "02-02-2017",
      "lastDateSBD": "09-08-2017",
      "dateOpeningBid": "10-08-2017",
      "validityQuotation": 90,
      "bidSecurityValidity": 1000,
      "costOfBidDocument": 1000
    },
    "sccInformation": {
      "packageCode": "TEQUI",
      "packageName": "G1",
      "draftInFavour": "Director NIT",
      "payableAt": "Raipur",
      "bdsStartTime": "10:00",
      "bdsEndTime": "15:00",
      "postalCharges": 260,
      "bidSecurity": 186000,
      "invitingOfficer": "Amit Keshav",
      "prebidMeetingDate": "09-05-2018",
      "prebidMeetingTime": "15:00",
      "warranty": 12,
      "arbitrationProceeding": "Registrar Office",
      "addressPurchaserNotice": "Resgistarr office",
      "liquidatedDamages": 12,
      "liquidatedDamagesMaximum": 15
    },
    "procuringDepartmentDetails": [
      {
        "departmentName": "Test Department",
        "items": []
      }
    ]
  },
  "advIssueOfBid": {
    "generateAdv": {
      "localPaperName": "times",
      "nationalPaperName": "times",
      "dateReleaseAdv": "18-10-2016",
      "packageName": "test package",
      "packageId": "1"
    },
    "viewAdvDetails": {
      "localPaperName": "times",
      "nationalPaperName": "times",
      "dateReleaseAdv": "18-10-2016",
      "publicationDateLocal": "18-10-2016",
      "publicationDateNational": "18-10-2016"
    },
    "prebidMeetingInformation": {
      "packageCode": "Test package",
      "packageName": "Package 123",
      "prebidMeetingDate": "10-05-2018",
      "prebidMeetingTime": "10:00",
      "actualMeetingDate": "16-05-2018",
      "meetingClarificationData": "Test Data",
      "isCorregendum": 1,
      "isClarifiationIssued": 1,
      "prebidMOM": "meetting was succcessulfyy conducted"
    }
  },
  "supplierDetails": [
    {
      "packageSupplierId": 7,
      "supplierId": 25,
      "supplierName": "test",
      "address": "tsf",
      "phoneNo": "1234567890",
      "emailId": "abcd@acd.com",
      "panNo": "knsad",
      "tanNo": "dsaknf",
      "taxNo": "kdsanf",
      "faxNo": "1234567890",
      "country": "asdf",
      "nationality": "adsf",
      "city": "adsf",
      "supplierSource": "adsf",
      "pinCode": 123456,
      "state": "adf",
      "reprensentative": "test",
      "supplierFirmType": "",
      "pmss_type": 2,
      "supplierRegistrationNumber": "",
      "quotationReadOutPrice": 120000
    }
  ],
  "loaAward": {
    "isCompleted": 1,
    "poNumber": "test 123",
    "loaGeneratedDate": "10-05-2018",
    "generateContract": {
      "supplierName": "test supplier",
      "PO": "po 123",
      "contractStartDate": "12-05-2016",
      "contractDocumentSigned": "19-05-2018",
      "securityRvcdDate": "15-06-2017",
      "securityAmount": 2000,
      "isArbitratorAgreed": "",
      "securityInstrument": "",
      "vatPercent": 10,
      "securityExpDate": "15-05-2018",
      "octroi": 1500,
      "totalCost": 110000,
      "evaluatedPrice": 110000,
      "baseCost": 120000,
      "basicCostPerUnit": 100
    }
  },
  "paymentDetails": [
    {
      "packagePaymentId": 4,
      "paymentDescription": "pppppppp",
      "milestonePercentage": 2,
      "expectedDeliveryDate": 1525910400000,
      "expectedDeliveryPeriod": 2,
      "expectedPaymentAmount": 222233,
      "expectedPaymentDate": 1527206400000,
      "poNumber": "1",
      "isWCCGenerated": 1,
      "milestoneActualCompletionPeriod": 1,
      "paymentDate": "2018-05-26",
      "chequeDraftNumber": "2222222222",
      "isWorkCompleted": 0,
      "actualCompletionDate": 1527206400000,
      "actualPaymentAmount": null,
      "totalPaymentTillNow": 2,
      "comments": "eeeeeee",
      "contractManagementCriteria": {
        "contractManagementCriteriaId": 12,
        "isWccGenerated": 1,
        "workOrderNumber": "",
        "poNumber": "",
        "isWorkCompleted": 1,
        "actualCompletionDate": 123456788,
        "isLiquidityDamagesWaived": 1,
        "liquidatedDamages": 10,
        "expectedPaymentAmountWithLD": 1200,
        "totalPaymentTillDate": 120000,
        "actualCompletionPeriod": 12,
        "actualCompletionPeriodComment": "",
        "actualPaymentDate": 122222,
        "actualPaymentDateComment": "",
        "actualPaymentAmount": 12222,
        "actualPaymentAmountComment": "",
        "retentionMoney": 12000,
        "checkDraftNumber": ""
      }
    }
  ],
  "packageMetaInfo": {
    "currentStage": "PO Generation",
    "isCompleted": 1,
    "status": "Completed|Cancelled|Initiated|InProgress",
    "isCheckListUpdated": 1,
    "stateCheckList": {
      "thisKeyWillBeDynamic": "value will be string"
    }
  },
  "questionsDetails": [
    {
      "questionCategory": "3",
      "questions": [
        {
          "packageQuestionId": 6,
          "question": "iiiii",
          "decision": 0,
          "value": "",
          "questionNonResponsiveValue": "",
          "isStandardQuestion": 1,
          "userResponse": "",
          "reasonForNonResponsiveNess": "",
          "type": "",
          "isReadOut": 1,
          "isEvaluatedPrice": 1
        }
      ]
    }
  ],
  "procuringDepartmentDetails": [
    {
      "departmentName": "SEPG",
      "items": [
        {
          "itemId": 19,
          "itemMasterId": 6,
          "itemName": "Almirah",
          "itemDescription": "test",
          "departmentId": 1,
          "department": "SEPG",
          "estimatedCost": 10090,
          "quantity": 10,
          "deliveyPeriod": 1,
          "trainingRequired": 1,
          "installationRequired": 1,
          "itemmainspecification": "1",
          "placeofdelivery": "1",
          "instllationrequirement": "1",
          "basicCost": 12000,
          "totalPrice": 120000,
          "itemQty": 1,
          "comments": "",
          "itemBreakUp": []
        }
      ],
      "works": [
        {
          "id": 3,
          "createdBy": null,
          "reviseId": 1,
          "status": null,
          "modifyBy": null,
          "modifyOn": null,
          "workCost": 14545,
          "workName": "refurbishment",
          "workSpecification": "refurbishment",
          "teqipPackageId": 12,
          "teqipPmssDepartmentMasterId": 2,
          "teqipPmssDepartmentMaster": "Institute Level"
        }
      ]
    }
  ],
  "completeCheckLists": {
      "packageCompleteCheckListId": 1,
      "supplierId": 12,
      "supplierName": "test",
      "goodReceived": 1,
      "installationDone": 1,
      "trainingDone": 1,
      "procurementDate": 1,
      "workCompleted": 1,
      "envchecklistUpdated": 1
    }
}